{
    "type" : "app",

    "roles" : {
        "apache2" : {
            "defaultcontext" : "",
            "apache2modules" : [
                "headers",
                "proxy",
                "proxy_http",
                "rewrite"
            ],

            "appconfigitems" : [
                {
                    "type"         : "tcpport",
                    "name"         : "main"
                },
                {
                    "type"         : "file",
                    "name"         : "${appconfig.apache2.appconfigfragmentfile}",
                    "template"     : "tmpl/htaccess.tmpl",
                    "templatelang" : "varsubst"
                },
                {
                    "type"         : "directory",
                    "name"         : "/etc/diet4j/diet4j-jsvc-${appconfig.appconfigid}",
                    "uname"        : "${apache2.uname}",
                    "gname"        : "${apache2.gname}",
                    "chmod"        : "0700"
                },
                {
                    "type"         : "file",
                    "name"         : "/etc/diet4j/diet4j-jsvc-${appconfig.appconfigid}/${package.name}.properties",
                    "template"     : "tmpl/diet4j-jsvc.properties.tmpl",
                    "templatelang" : "varsubst",
                    "uname"        : "${apache2.uname}",
                    "gname"        : "${apache2.gname}",
                    "chmod"        : "0400"
                },
                {
                    "type"         : "file",
                    "name"         : "/etc/diet4j/diet4j-jsvc-${appconfig.appconfigid}.env",
                    "template"     : "tmpl/diet4j-jsvc.env.tmpl",
                    "templatelang" : "varsubst"
                },
                {
                    "type"         : "systemd-service",
                    "name"         : "diet4j-jsvc@${appconfig.appconfigid}",
                    "phase"        : "suspendresume"
                }
            ]
        },
        "mysql" : {
            "appconfigitems" : [
                {
                    "type"             : "database",
                    "name"             : "maindb",
                    "retentionpolicy"  : "keep",
                    "retentionbucket"  : "maindb",
                    "privileges"       : "select, insert, update, delete"
                }
            ],
            "installers" : [
                {
                    "name"   : "maindb",
                    "type"   : "sqlscript",
                    "source" : "/ubos/share/ubos-mesh-store-mysql/sql/store-schema.sql"
                },
                {
                    "name"   : "maindb",
                    "type"   : "sqlscript",
                    "source" : "/ubos/share/ubos-mesh-store-mysql/sql/historystore-schema.sql"
                },
                {
                    "name"   : "maindb",
                    "type"   : "sqlscript",
                    "source" : "/ubos/share/ubos-mesh-underbars-mysql/sql/transactionlog-schema.sql"
                },
                {
                    "name"   : "maindb",
                    "type"   : "sqlscript",
                    "source" : "/ubos/share/ubos-mesh-underbars-mysql/sql/indexstore-schema.sql"
                },
                {
                    "name"   : "maindb",
                    "type"   : "sqlscript",
                    "source" : "/ubos/share/ubos-mesh-underbars-mysql/sql/credentials-schema.sql"
                },
                {
                    "name"   : "maindb",
                    "type"   : "sqlscript",
                    "source" : "/ubos/share/ubos-mesh-underbars-mysql/sql/primary-ns-schema.sql"
                },
                {
                    "name"   : "maindb",
                    "type"   : "sqlscript",
                    "source" : "/ubos/share/ubos-mesh-underbars-mysql/sql/contextual-ns-schema.sql"
                }
            ]
        }
    },
    "customizationpoints" : {
        "usehistory" : {
            "type" : "boolean",
            "required" : true,
            "default" : {
                "value" : false
            }
        },
#        "usetransactionlog" : {
#            "type" : "boolean",
#            "required" : true,
#            "default" : {
#                "value" : true
#            }
#        },
        "useindex" : {
            "type" : "boolean",
            "required" : true,
            "default" : {
                "value" : true
            }
        },
        "useaccessmanager" : {
            "type" : "boolean",
            "required" : true,
            "default" : {
                "value" : true
            }
        },
        "uselicensemanager" : {
            "type" : "boolean",
            "required" : true,
            "default" : {
                "value" : true
            }
        },
        "fullappname" : {
            "type" : "string",
            "required" : true,
            "default" : {
                "value" : "UBOS Personal Data Mesh"
            }
        },
        "shortappname" : {
            "type" : "string",
            "required" : true,
            "default" : {
                "value" : "UBOS Mesh"
            }
        },
        "datakey" : {
            "name"     : "Key to encrypt data",
            "type"     : "string",
            "required" : true,
            "private"  : true,
            "internal" : true,
            "default" : {
                "expression" : "${randomHex(48)}"
            }
        },
        "credentialskey" : {
            "name"     : "Key to encrypt user credentials",
            "type"     : "string",
            "required" : true,
            "private"  : true,
            "internal" : true,
            "default" : {
                "expression" : "${randomHex(48)}"
            }
        },
        "javaopts" : {
            "name"     : "Java options",
            "type"     : "string",
            "required" : false,
            "default"  : {
                "value" : ""
            }
        }
    }
}
